{
  "e173doc": {
    "deviceClasses": {
      "org.esta.dev.movable#1.0.0": {
        "libraries": {
          "org.esta.lib.motion": "1.0.0",
          "org.esta.lib.core": "1.0.0"
        },
        "@description": "movable_description",
        "publishDate": "2023-08-12T16:00:00Z",
        "author": "ESTA",
        "info": {
          "manufacturer": {
            "name": "ESTA",
            "url": "https://www.esta.org",
            "esta-id": "0000"
          },
          "model": {
            "name": "UDR Movable",
            "category": "other",
            "subcategory": "other"
          }
        },
        "history": {
          "2023-08-12T16:00:00Z": "Initial release"
        },
        "parameters": {
          "xPos": {
            "class": "org.esta.lib.motion/motion/linear/position",
            "access": "readwrite",
            "lifetime": "runtime",
            "minimum": -300,
            "maximum": 300,
            "default": 0
          },
          "yPos": {
            "class": "org.esta.lib.motion/motion/linear/position",
            "access": "readwrite",
            "lifetime": "runtime",
            "minimum": -300,
            "maximum": 300,
            "default": 0
          },
          "zPos": {
            "class": "org.esta.lib.motion/motion/linear/position",
            "access": "readwrite",
            "lifetime": "runtime",
            "minimum": -300,
            "maximum": 300,
            "default": 0
          },
          "xRot": {
            "class": "org.esta.lib.motion/motion/rotate/offset",
            "access": "readwrite",
            "lifetime": "runtime",
            "minimum": -180,
            "maximum": 180,
            "default": 0
          },
          "yRot": {
            "class": "org.esta.lib.motion/motion/rotate/offset",
            "access": "readwrite",
            "lifetime": "runtime",
            "minimum": -180,
            "maximum": 180,
            "default": 0
          },
          "zRot": {
            "class": "org.esta.lib.motion/motion/rotate/offset",
            "access": "readwrite",
            "lifetime": "runtime",
            "minimum": -180,
            "maximum": 180,
            "default": 0
          },
          "xSpin": {
            "class": "org.esta.lib.motion/motion/rotate/spin",
            "access": "readwrite",
            "lifetime": "runtime",
            "minimum": -120,
            "maximum": 120,
            "default": 0
          },
          "ySpin": {
            "class": "org.esta.lib.motion/motion/rotate/spin",
            "access": "readwrite",
            "lifetime": "runtime",
            "minimum": -120,
            "maximum": 120,
            "default": 0
          },
          "zSpin": {
            "class": "org.esta.lib.motion/motion/rotate/spin",
            "access": "readwrite",
            "lifetime": "runtime",
            "minimum": -120,
            "maximum": 120,
            "default": 0
          }
        },
        "structures": {
          "constraints": {
            "class": "org.esta.lib.core/str/constraints",
            "access": "readonly",
            "lifetime": "static",
            "default": {
              "constraintGroups": {
                "constraintGroup1": {
                  "parameters": [ "/par/xRot", "/par/yRot", "/par/zRot", "/par/xSpin", "/par/ySpin", "/par/zSpin" ],
                  "combinations": [
                    [
                      {
                        "parameter": "/par/xRot",
                        "start": -180,
                        "end": 180
                      },
                      {
                        "parameter": "/par/yRot",
                        "start": -180,
                        "end": 180
                      },
                      {
                        "parameter": "/par/zRot",
                        "start": -180,
                        "end": 180
                      }
                    ],
                    [
                      {
                        "parameter": "/par/xSpin",
                        "start": -120,
                        "end": 120
                      },
                      {
                        "parameter": "/par/ySpin",
                        "start": -120,
                        "end": 120
                      },
                      {
                        "parameter": "/par/zSpin",
                        "start": -120,
                        "end": 120
                      }
                    ]
                  ]
                }
              }
            }
          },
          "structure": {
            "class": "org.esta.lib.motion/str/structure-3d",
            "access": "readonly",
            "lifetime": "static",
            "default": {
              "nodes": {
                "node": {
                  "control": [
                    {
                      "type": "linear",
                      "axis": "x",
                      "commonAxis": "x",
                      "parameter": "/par/xPos"
                    },
                    {
                      "type": "rotate",
                      "axis": "x",
                      "commonAxis": "x",
                      "parameter": "/par/xRot"
                    },
                    {
                      "type": "linear",
                      "axis": "y",
                      "commonAxis": "y",
                      "parameter": "/par/yPos"
                    },
                    {
                      "type": "rotate",
                      "axis": "y",
                      "commonAxis": "y",
                      "parameter": "/par/yRot"
                    },
                    {
                      "type": "linear",
                      "axis": "z",
                      "commonAxis": "z",
                      "parameter": "/par/zPos"
                    },
                    {
                      "type": "rotate",
                      "axis": "z",
                      "commonAxis": "z",
                      "parameter": "/par/zRot"
                    }
                  ]
                }
              }
            }
          }
        },
        "serializers": {
          "dmx": {
            "class": "org.esta.lib.core/ser/esta-dmx",
            "access": "readonly",
            "lifetime": "persistent",
            "default": {
              "chunks": {
                "xPos": {
                  "size": 2,
                  "offset": [ 0 ],
                  "mappingGroups": [
                    {
                      "mappings": [
                        {
                          "parameter": "/par/xPos",
                          "start": -300,
                          "end": 300,
                          "chunkStart": 0,
                          "chunkEnd": 60000
                        },
                        {
                          "chunkStart": 60001,
                          "chunkEnd": 65535
                        }
                      ]
                    }
                  ]
                },
                "yPos": {
                  "size": 2,
                  "offset": [ 2 ],
                  "mappingGroups": [
                    {
                      "mappings": [
                        {
                          "parameter": "/par/yPos",
                          "start": -300,
                          "end": 300,
                          "chunkStart": 0,
                          "chunkEnd": 60000
                        },
                        {
                          "chunkStart": 60001,
                          "chunkEnd": 65535
                        }
                      ]
                    }
                  ]
                },
                "zPos": {
                  "size": 2,
                  "offset": [ 4 ],
                  "mappingGroups": [
                    {
                      "mappings": [
                        {
                          "parameter": "/par/zPos",
                          "start": -300,
                          "end": 300,
                          "chunkStart": 0,
                          "chunkEnd": 60000
                        },
                        {
                          "chunkStart": 60001,
                          "chunkEnd": 65535
                        }
                      ]
                    }
                  ]
                },
                "xRot": {
                  "size": 2,
                  "offset": [ 6 ],
                  "mappingGroups": [
                    {
                      "mappings": [
                        {
                          "parameter": "/par/xRot",
                          "start": -180,
                          "end": 180,
                          "chunkStart": 0,
                          "chunkEnd": 36000
                        },
                        {
                          "chunkStart": 36001,
                          "chunkEnd": 65535
                        }
                      ]
                    }
                  ]
                },
                "yRot": {
                  "size": 2,
                  "offset": [ 8 ],
                  "mappingGroups": [
                    {
                      "mappings": [
                        {
                          "parameter": "/par/yRot",
                          "start": -180,
                          "end": 180,
                          "chunkStart": 0,
                          "chunkEnd": 36000
                        },
                        {
                          "chunkStart": 36001,
                          "chunkEnd": 65535
                        }
                      ]
                    }
                  ]
                },
                "zRot": {
                  "size": 2,
                  "offset": [ 10 ],
                  "mappingGroups": [
                    {
                      "mappings": [
                        {
                          "parameter": "/par/zRot",
                          "start": -180,
                          "end": 180,
                          "chunkStart": 0,
                          "chunkEnd": 36000
                        },
                        {
                          "chunkStart": 36001,
                          "chunkEnd": 65535
                        }
                      ]
                    }
                  ]
                },
                "xSpin": {
                  "size": 1,
                  "offset": [ 12 ],
                  "mappingGroups": [
                    {
                      "mappings": [
                        {
                          "parameter": "/par/xSpin",
                          "start": -120,
                          "end": 120,
                          "chunkStart": 0,
                          "chunkEnd": 240
                        },
                        {
                          "chunkStart": 241,
                          "chunkEnd": 255
                        }
                      ]
                    }
                  ]
                },
                "ySpin": {
                  "size": 1,
                  "offset": [ 12 ],
                  "mappingGroups": [
                    {
                      "mappings": [
                        {
                          "parameter": "/par/ySpin",
                          "start": -120,
                          "end": 120,
                          "chunkStart": 0,
                          "chunkEnd": 240
                        },
                        {
                          "chunkStart": 241,
                          "chunkEnd": 255
                        }
                      ]
                    }
                  ]
                },
                "zSpin": {
                  "size": 1,
                  "offset": [ 12 ],
                  "mappingGroups": [
                    {
                      "mappings": [
                        {
                          "parameter": "/par/zSpin",
                          "start": -120,
                          "end": 120,
                          "chunkStart": 0,
                          "chunkEnd": 240
                        },
                        {
                          "chunkStart": 241,
                          "chunkEnd": 255
                        }
                      ]
                    }
                  ]
                }
              }
            }
          }
        },
        "localizations": {
          "en-US": {
            "strings": {
              "movable_description": "Movement control for visualization and other virtual environments."
            }
          }
        }
      }
    }
  },
  "$schema": "https://gitlab.com/esta-cpwg/e173/-/raw/main/schemas/draft-2023-1/udr-document.json"
}
