{
  "parameterClasses": {
    "motion/rotate/offset": {
      "suggestedDefault": 0
    },
    "motion/rotate/spin": {
      "suggestedDefault": 0
    },
    "motion/linear/position": {
      "suggestedDefault": 0
    }
  }
}
