{
  "motion": {
    "description": "Classes which describe physical or virtual movement.",
    "categories": {
      "rotate": {
        "description": "Classes which describe physical or virtual rotational movement (movement around an axis)."
      },
      "linear": {
        "description": "Classes which describe physical or virtual translational movement (movement along an axis)."
      }
    }
  }
}
