{
  "$id": "esta:e173:device",
  "$schema": "https://json-schema.org/draft/2019-09/schema",
  "title": "E1.73 UDR: Device",
  "description": "The schema for E1.73 UDR: Device",
  "type": "object",
  "properties": {
    "class": {
      "type": "string"
    },
    "userIdentifier": {
      "type": "string"
    },
    "friendlyName": {
      "type": "string"
    },
    "unitNumber": {
      "type": "string"
    },
    "translate": {
      "$ref": "#/$defs/xyzTranslate"
    },
    "rotate": {
      "$ref": "#/$defs/xyzRotate"
    },
    "transport": {
      "$ref": "#/$defs/deviceTransport"
    },
    "overlay": {
      "$ref": "#/$defs/deviceOverlay"
    }
  },
  "required": [
    "class",
    "userIdentifier"
  ],
  "$defs": {
    "xyzTranslate": {
      "type": "array",
      "minItems": 3,
      "maxItems": 3,
      "items": {
        "type": "number"
      }
    },
    "xyzRotate": {
      "type": "array",
      "minItems": 3,
      "maxItems": 3,
      "items": {
        "type": "number",
        "minimum": 0,
        "maximum": 360
      }
    },
    "deviceTransport": {
      "type": "object",
      "properties": {
        "methods": {
          "type": "object",
          "additionalProperties": {
            "$ref": "#/$defs/deviceTransportMethod"
          }
        }
      }
    },
    "deviceTransportMethod": {
      "type": "object",
      "properties": {
        "serializer": {
          "type": "string"
        },
        "address": {
          "type": "string"
        }
      }
    },
    "deviceOverlay": {
      "type": "object",
      "properties": {
        "base": {
          "type": "string"
        },
        "staticValues": {
          "$ref": "#/$defs/staticValues"
        }
      }
    },
    "staticValues": {
      "type": "object",
      "properties": {
        "parameters": {
          "$ref": "#/$defs/staticValuesInner"
        },
        "structures": {
          "$ref": "#/$defs/staticValuesInner"
        },
        "serializers": {
          "$ref": "#/$defs/staticValuesInner"
        },
        "resources": {
          "$ref": "#/$defs/resourceStaticValuesInner"
        }
      },
      "additionalProperties": false
    },
    "staticValuesInner": {
      "type": "object"
    },
    "resourceStaticValuesInner": {
      "type": "object",
      "additionalProperties": {
        "type": "string"
      }
    }
  }
}
