{
  "$id": "esta:e173:library",
  "$schema": "https://json-schema.org/draft/2019-09/schema",
  "title": "E1.73 UDR: Library",
  "description": "The schema for E1.73 UDR: Library",
  "type": "object",
  "properties": {
    "@description": {
      "type": "string"
    },
    "publishDate": {
      "type": "string"
    },
    "author": {
      "type": "string"
    },
    "parameterClasses": {
      "type": "object",
      "additionalProperties": {
        "$ref": "esta:e173:parameter-class"
      }
    },
    "structureClasses": {
      "type": "object",
      "additionalProperties": {
        "$ref": "esta:e173:structure-class"
      }
    },
    "serializerClasses": {
      "type": "object",
      "additionalProperties": {
        "$ref": "esta:e173:serializer-class"
      }
    },
    "resourceClasses": {
      "type": "object",
      "additionalProperties": {
        "$ref": "esta:e173:resource-class"
      }
    },
    "localizations": {
      "$ref": "esta:e173:localization#/$defs/definitionLocalization"
    }
  },
  "required": ["@description", "publishDate", "author"],
  "additionalProperties": false
}
