{
  "$id": "esta:e173:parameter",
  "$schema": "https://json-schema.org/draft/2019-09/schema",
  "title": "E1.73 UDR: Parameter",
  "description": "The schema for E1.73 UDR: Parameter",
  "type": "object",
  "properties": {
    "library": {
      "type": "string"
    },
    "class": {
      "type": "string"
    },
    "@friendlyName": {
      "type": "string"
    },
    "dynamicMinimum": {
      "type": "integer",
      "minimum": 0
    },
    "dynamicMaximum": {
      "type": "integer",
      "minimum": 1
    },
    "count": {
      "type": "integer",
      "minimum": 1
    },
    "access": {
      "$ref": "esta:e173:access-lifetime#/$defs/accessParameter"
    },
    "lifetime": {
      "$ref": "esta:e173:access-lifetime#/$defs/lifetime"
    },
    "atomicIdentifier": {
      "type": "string"
    },
    "minimum": {
      "type": "number"
    },
    "maximum": {
      "type": "number"
    },
    "minimumModifier": {
      "type": "string"
    },
    "maximumModifier": {
      "type": "string"
    },
    "default": {
      "type": [
        "number",
        "boolean",
        "null"
      ]
    },
    "wrapping": {
      "type": "boolean"
    }
  },
  "required": [ "class", "access", "lifetime" ]
}
