{
  "$id": "https://gitlab.com/esta-cpwg/e173/-/raw/main/schemas/draft-2023-1/udr-document.json",
  "$schema": "https://json-schema.org/draft/2019-09/schema",
  "title": "E1.73 UDR Documents",
  "description": "The schema for E1.73 UDR Documents",
  "type": "object",
  "properties": {
    "e173doc": {
      "type": "object",
      "description": "The definitions provided by the document.",
      "properties": {
        "libraries": {
          "$ref": "#/$defs/libraries"
        },
        "deviceClasses": {
          "$ref": "#/$defs/deviceClasses"
        },
        "systems": {
          "$ref": "#/$defs/systems"
        },
        "localizations": {
          "$ref": "esta:e173:localization#/$defs/overlayLocalization"
        }
      },
      "additionalProperties": false
    },
    "$schema": {
      "type": "string",
      "description": "The unique identifier of the schema which applies to the document.",
      "const": "https://gitlab.com/esta-cpwg/e173/-/raw/main/schemas/draft-2023-1/udr-document.json"
    }
  },
  "required": ["e173doc", "$schema"],
  "additionalProperties": true,
  "$defs": {
    "libraries": {
      "type": "object",
      "additionalProperties": {
        "$ref": "esta:e173:library"
      }
    },
    "deviceClasses": {
      "type": "object",
      "additionalProperties": {
        "$ref": "esta:e173:device-class"
      }
    },
    "systems": {
      "type": "object",
      "additionalProperties": {
        "$ref": "esta:e173:system"
      }
    }
  }
}
